11장_사례분석소스
…
#xlim(c(45,60))
orderBy(~-income.mean, data=age_income)[1,]   # 월급을 가장 많이 받는 나이대 

## # A tibble: 1 x 3
##     age income.mean income.sd
##   <dbl>       <dbl>     <dbl>
## 1    53        319.      319.

age_income[order(age_income$income.mean, decreasing = T),]

## # A tibble: 69 x 3
##      age income.mean income.sd
##    <dbl>       <dbl>     <dbl>
##  1    53        319.      319.
##  2    49        315.      315.
##  3    44        315.      315.
##  4    50        314.      314.
##  5    40        306.      306.
##  6    47        302.      302.
##  7    42        301.      301.
##  8    46        300.      300.
##  9    56        295.      295.
## 10    55        294.      294.
## # ... with 59 more rows
…
gender_age_income <- welfare%>%
  filter(!is.na(welfare$income))%>%
  group_by(age,gender)%>%
  summarise(income.mean=mean(income),
            income.sd=sd(income),
            income.median=median(income),
            income.min=min(income),
            income.max= max(income),
            n=n())

## `summarise()` has grouped output by 'age'. You can override using the `.groups` argument.

gender_age_income 

## # A tibble: 134 x 8
## # Groups:   age [69]
##      age gender income.mean income.sd income.median income.min income.max     n
##    <dbl> <fct>        <dbl>     <dbl>         <dbl>      <dbl>      <dbl> <int>
##  1    20 male           69      NA             69         69          69      1
##  2    20 female        147.      8.27         147.       142.        153.     2
##  3    21 male          102.     23.4           97.5       63.6       140      8
##  4    21 female        107.     64.0          110         22         258.    19
##  5    22 male          118.     65.1          103         36.7       280     14
##  6    22 female        140.     82.6          150         15         358.    17
##  7    23 male          153.     61.3          139.        96         240      4
##  8    23 female        139.     76.1          120         40         350     19
##  9    24 male          158.     63.2          155         60         280     13
## 10    24 female        126.     63.5          136         20         302.    40
## # ... with 124 more rows
…
